\relax 
\citation{katzev1992impact}
\citation{hue}
\citation{endo}
\citation{tanaka2009evolutional}
\citation{miki2004proposal}
\citation{park2007design}
\citation{singhvi2005intelligent}
\@writefile{toc}{\contentsline {section}{\numberline {I}Introduction }{1}}
\@writefile{toc}{\contentsline {section}{\numberline {II}Related Research}{1}}
\@writefile{toc}{\contentsline {section}{\numberline {III}Wireless Sensor Network-driven Intelligent Lighting System}{1}}
\@writefile{toc}{\contentsline {subsection}{\numberline {\unhbox \voidb@x \hbox {III-A}}Outline and Algorithm}{1}}
\newlabel{sec:WSN-ILS}{{\unhbox \voidb@x \hbox {III-A}}{1}}
\@writefile{lof}{\contentsline {figure}{\numberline {1}{\ignorespaces Construction of WSN-ILS}}{2}}
\newlabel{fig:construction_wsn-ils}{{1}{2}}
\newlabel{mokuteki1}{{1}{2}}
\@writefile{toc}{\contentsline {subsection}{\numberline {\unhbox \voidb@x \hbox {III-B}}Outline and Algorithm}{2}}
\newlabel{sec:WSN-ILS_Alogrithm}{{\unhbox \voidb@x \hbox {III-B}}{2}}
\@writefile{lof}{\contentsline {figure}{\numberline {2}{\ignorespaces 3 types of light change range}}{3}}
\newlabel{fig:kinbou3}{{2}{3}}
\@writefile{toc}{\contentsline {subsection}{\numberline {\unhbox \voidb@x \hbox {III-C}}Influence and Scheme of Control to Lighting}{3}}
\newlabel{sec:influence}{{\unhbox \voidb@x \hbox {III-C}}{3}}
\@writefile{toc}{\contentsline {section}{\numberline {IV}Control Type of WSN-ILS}{3}}
\@writefile{toc}{\contentsline {subsection}{\numberline {\unhbox \voidb@x \hbox {IV-A}}All Lighting Control Scheme}{3}}
\@writefile{toc}{\contentsline {subsection}{\numberline {\unhbox \voidb@x \hbox {IV-B}}Limited Lighting Control Scheme}{3}}
\citation{crossbow}
\citation{napica}
\@writefile{toc}{\contentsline {section}{\numberline {V}Experiments}{4}}
\@writefile{toc}{\contentsline {subsection}{\numberline {\unhbox \voidb@x \hbox {V-A}}Experimental Environment}{4}}
\@writefile{lof}{\contentsline {figure}{\numberline {3}{\ignorespaces Experiment environment}}{4}}
\newlabel{fig:enviro}{{3}{4}}
\@writefile{lof}{\contentsline {figure}{\numberline {4}{\ignorespaces An experiment room}}{4}}
\newlabel{fig:kc111}{{4}{4}}
\@writefile{toc}{\contentsline {subsection}{\numberline {\unhbox \voidb@x \hbox {V-B}}Evaluation of Control All Lights Scheme and Limited Lights Scheme}{4}}
\@writefile{lof}{\contentsline {figure}{\numberline {5}{\ignorespaces History of the illuminance data in all lights scheme}}{4}}
\newlabel{fig:all_lights_method_ill}{{5}{4}}
\@writefile{lof}{\contentsline {figure}{\numberline {6}{\ignorespaces History of the illuminance data in limited lights scheme}}{5}}
\newlabel{fig:selected_lights_method_ill}{{6}{5}}
\@writefile{lof}{\contentsline {figure}{\numberline {7}{\ignorespaces A connection of node and lighting on WSN-ILS in all lights scheme}}{5}}
\newlabel{fig:all_lights_method_environ}{{7}{5}}
\@writefile{lof}{\contentsline {figure}{\numberline {8}{\ignorespaces A connection of node and lighting on WSN-ILS in limited lights scheme}}{5}}
\newlabel{fig:selected_lights_method_environ}{{8}{5}}
\@writefile{lof}{\contentsline {figure}{\numberline {9}{\ignorespaces Snapshot of lightings of all lights scheme at 300 step}}{5}}
\newlabel{fig:all_lights_cd(300)}{{9}{5}}
\@writefile{lof}{\contentsline {figure}{\numberline {10}{\ignorespaces Snapshot of lightings of limited lights scheme at 300 step}}{5}}
\newlabel{fig:5lights_cd(300)}{{10}{5}}
\bibstyle{IEEEtran}
\bibdata{mokada_cite}
\bibcite{katzev1992impact}{1}
\bibcite{hue}{2}
\bibcite{endo}{3}
\bibcite{tanaka2009evolutional}{4}
\bibcite{miki2004proposal}{5}
\bibcite{park2007design}{6}
\bibcite{singhvi2005intelligent}{7}
\bibcite{crossbow}{8}
\bibcite{napica}{9}
\@writefile{lof}{\contentsline {figure}{\numberline {11}{\ignorespaces History of power consumption}}{6}}
\newlabel{fig:powerconsumption}{{11}{6}}
\@writefile{toc}{\contentsline {section}{\numberline {VI}Conclusion and Future prospects}{6}}
\@writefile{toc}{\contentsline {section}{References}{6}}
