\relax 
\citation{ILS,MMIKI}
\citation{hue}
\citation{Vipul,Delaney,Heemin,Jaspal}
\@writefile{toc}{\contentsline {section}{\numberline {1.}Introduction}{1}}
\citation{tanaka2009evolutional}
\@writefile{toc}{\contentsline {section}{\numberline {2.}Wireless Sensor Network-Driven Intelligent Lighting System}{2}}
\@writefile{toc}{\contentsline {subsection}{\numberline {2.1}無線センサネットワーク駆動型知的照明システムの概要，アルゴリズム}{2}}
\newlabel{mokuteki2}{{1}{2}}
\@writefile{toc}{\contentsline {subsection}{\numberline {2.2}WSN-ILSの制御手法}{3}}
\@writefile{toc}{\contentsline {subsection}{\numberline {2.3}全灯制御方式}{3}}
\@writefile{lof}{\contentsline {figure}{\numberline {1}{\ignorespaces Three types of light change range}}{3}}
\newlabel{fig:kinbou3}{{1}{3}}
\@writefile{toc}{\contentsline {subsection}{\numberline {2.4}制御照明限定方式}{3}}
\citation{crossbow}
\citation{napica}
\citation{鹿倉智明2001オフィス照明環境における明るさの変動知覚に関する研究}
\@writefile{toc}{\contentsline {section}{\numberline {3.}Experiments}{4}}
\@writefile{toc}{\contentsline {subsection}{\numberline {3.1}Summary}{4}}
\@writefile{toc}{\contentsline {subsection}{\numberline {3.2}Environment}{4}}
\@writefile{lof}{\contentsline {figure}{\numberline {2}{\ignorespaces A environment of the experiment about a number of lighting that is required}}{4}}
\newlabel{fig:enviro1}{{2}{4}}
\@writefile{lof}{\contentsline {figure}{\numberline {3}{\ignorespaces An experiment room}}{4}}
\newlabel{fig:kc111}{{3}{4}}
\@writefile{toc}{\contentsline {subsection}{\numberline {3.3}Evaluation of ...(全灯制御方式)}{4}}
\@writefile{toc}{\contentsline {subsection}{\numberline {3.4}Evaluation of ...(制御照明限定方式)}{4}}
\@writefile{toc}{\contentsline {section}{\numberline {4.}Conclusion}{4}}
\bibcite{ILS}{1}
\bibcite{MMIKI}{2}
\bibcite{hue}{3}
\bibcite{Vipul}{4}
\bibcite{Delaney}{5}
\bibcite{Heemin}{6}
\bibcite{Jaspal}{7}
\bibcite{tanaka2009evolutional}{8}
\bibcite{crossbow}{9}
\bibcite{napica}{10}
\bibcite{鹿倉智明2001オフィス照明環境における明るさの変動知覚に関する研究}{11}
